VHDL/wav/w.vcd
$date
  Mon Dec 10 00:39:22 2018
$end
$version
  GHDL v0
$end
$timescale
  1 fs
$end
$var reg 1 ! clk_signal $end
$var reg 1 " reset_signal $end
$var reg 1 # trigger_signal $end
$var reg 1 $ stopper_signal $end
$var reg 1 % wave_signal $end
$scope module dut $end
$var reg 1 & clk $end
$var reg 1 ' reset $end
$var reg 1 ( trigger $end
$var reg 1 ) stopper $end
$var reg 1 * wave $end
$var integer 32 + counter $end
$var reg 1 , load $end
$comment pulse_pres is not handled $end
$comment pulse_next is not handled $end
$upscope $end
$enddefinitions $end
#0
1!
0"
1#
U$
0%
1&
0'
1(
U)
0*
b11 +
0,
#5000000
0!
0&
#10000000
1!
1%
1&
1*
1,
#15000000
0!
0&
#20000000
1!
1&
b10 +
#25000000
0!
0&
#30000000
1!
1&
b1 +
#35000000
0!
0&
#40000000
1!
0%
1&
0*
b11 +
0,
#45000000
0!
0&
#50000000
1!
1%
1&
1*
1,
#55000000
0!
0&
#60000000
1!
1&
b10 +
#65000000
0!
0&
#70000000
1!
1&
b1 +
#75000000
0!
0&
#80000000
1!
0%
1&
0*
b11 +
0,
#85000000
0!
0&
#90000000
1!
1%
1&
1*
1,
#95000000
0!
0&
#100000000
1!
1"
0%
1&
1'
0*
b11 +
0,
#105000000
0!
0&
#110000000
1!
1&
#115000000
0!
0&
#120000000
1!
1&
#125000000
0!
0&
#130000000
1!
1&
#135000000
0!
0&
#140000000
1!
1&
#145000000
0!
0&
#150000000
1!
1&
#155000000
0!
0&
#160000000
1!
1&
#165000000
0!
0&
#170000000
1!
1&
#175000000
0!
0&
#180000000
1!
1&
#185000000
0!
0&
#190000000
1!
1&
#195000000
0!
0&
#200000000
1!
1&
#205000000
0!
0&
#210000000
1!
1&
#215000000
0!
0&
#220000000
1!
1&
#225000000
0!
0&
#230000000
1!
1&
#235000000
0!
0&
#240000000
1!
1&
#245000000
0!
0&
#250000000
1!
1&
#255000000
0!
0&
#260000000
1!
1&
#265000000
0!
0&
#270000000
1!
1&
#275000000
0!
0&
#280000000
1!
1&
#285000000
0!
0&
#290000000
1!
1&
#295000000
0!
0&
#300000000
1!
0"
1%
1&
0'
1*
1,
#305000000
0!
0&
#310000000
1!
1&
b10 +
#315000000
0!
0&
#320000000
1!
1&
b1 +
#325000000
0!
0&
#330000000
1!
0%
1&
0*
b11 +
0,
#335000000
0!
0&
#340000000
1!
1%
1&
1*
1,
#345000000
0!
0&
#350000000
1!
1&
b10 +
#355000000
0!
0&
#360000000
1!
1&
b1 +
#365000000
0!
0&
#370000000
1!
0%
1&
0*
b11 +
0,
#375000000
0!
0&
#380000000
1!
1%
1&
1*
1,
#385000000
0!
0&
#390000000
1!
1&
b10 +
#395000000
0!
0&
#400000000
1!
1"
0%
1&
1'
0*
b11 +
0,
#405000000
0!
0&
#410000000
1!
1&
#415000000
0!
0&
#420000000
1!
1&
#425000000
0!
0&
#430000000
1!
1&
#435000000
0!
0&
#440000000
1!
1&
#445000000
0!
0&
#450000000
1!
1&
#455000000
0!
0&
#460000000
1!
1&
#465000000
0!
0&
#470000000
1!
1&
#475000000
0!
0&
#480000000
1!
1&
#485000000
0!
0&
#490000000
1!
1&
#495000000
0!
0&
#500000000
1!
1&
#505000000
0!
0&
#510000000
1!
1&
#515000000
0!
0&
#520000000
1!
1&
#525000000
0!
0&
#530000000
1!
1&
#535000000
0!
0&
#540000000
1!
1&
#545000000
0!
0&
#550000000
1!
1&
#555000000
0!
0&
#560000000
1!
1&
#565000000
0!
0&
#570000000
1!
1&
#575000000
0!
0&
#580000000
1!
1&
#585000000
0!
0&
#590000000
1!
1&
#595000000
0!
0&
#600000000
1!
0"
1%
1&
0'
1*
1,
#605000000
0!
0&
#610000000
1!
1&
b10 +
#615000000
0!
0&
#620000000
1!
1&
b1 +
#625000000
0!
0&
#630000000
1!
0%
1&
0*
b11 +
0,
#635000000
0!
0&
#640000000
1!
1%
1&
1*
1,
#645000000
0!
0&
#650000000
1!
1&
b10 +
#655000000
0!
0&
#660000000
1!
1&
b1 +
#665000000
0!
0&
#670000000
1!
0%
1&
0*
b11 +
0,
#675000000
0!
0&
#680000000
1!
1%
1&
1*
1,
#685000000
0!
0&
#690000000
1!
1&
b10 +
#695000000
0!
0&
#700000000
1!
1"
0%
1&
1'
0*
b11 +
0,
#705000000
0!
0&
#710000000
1!
1&
#715000000
0!
0&
#720000000
1!
1&
#725000000
0!
0&
#730000000
1!
1&
#735000000
0!
0&
#740000000
1!
1&
#745000000
0!
0&
#750000000
1!
1&
#755000000
0!
0&
#760000000
1!
1&
#765000000
0!
0&
#770000000
1!
1&
#775000000
0!
0&
#780000000
1!
1&
#785000000
0!
0&
#790000000
1!
1&
#795000000
0!
0&
#800000000
1!
1&
#805000000
0!
0&
#810000000
1!
1&
#815000000
0!
0&
#820000000
1!
1&
#825000000
0!
0&
#830000000
1!
1&
#835000000
0!
0&
#840000000
1!
1&
#845000000
0!
0&
#850000000
1!
1&
#855000000
0!
0&
#860000000
1!
1&
#865000000
0!
0&
#870000000
1!
1&
#875000000
0!
0&
#880000000
1!
1&
#885000000
0!
0&
#890000000
1!
1&
#895000000
0!
0&
#900000000
1!
0"
1%
1&
0'
1*
1,
#905000000
0!
0&
#910000000
1!
1&
b10 +
#915000000
0!
0&
#920000000
1!
1&
b1 +
#925000000
0!
0&
#930000000
1!
0%
1&
0*
b11 +
0,
#935000000
0!
0&
#940000000
1!
1%
1&
1*
1,
#945000000
0!
0&
#950000000
1!
1&
b10 +
#955000000
0!
0&
#960000000
1!
1&
b1 +
#965000000
0!
0&
#970000000
1!
0%
1&
0*
b11 +
0,
#975000000
0!
0&
#980000000
1!
1%
1&
1*
1,
#985000000
0!
0&
#990000000
1!
1&
b10 +
