VHDL/lights/lig.vcd
$date
  Thu Dec 13 22:00:43 2018
$end
$version
  GHDL v0
$end
$timescale
  1 fs
$end
$var reg 1 ! clk $end
$var reg 1 " reset $end
$var reg 1 # button $end
$var reg 5 $ n[4:0] $end
$scope module dut $end
$var reg 1 % button $end
$var reg 1 & reset $end
$var reg 1 ' clk $end
$var reg 3 ( cars[2:0] $end
$var reg 3 ) people[2:0] $end
$comment next_state is not handled $end
$comment present_state is not handled $end
$var integer 32 * counter $end
$var integer 32 + counter_max $end
$var reg 1 , load $end
$upscope $end
$enddefinitions $end
#0
1!
0"
0#
bUUUUU $
0%
0&
1'
b001 (
b100 )
b1 *
b1 +
0,
#5000000
0!
0'
#10000000
1!
1'
#15000000
0!
0'
#20000000
1!
1#
1%
1'
b111 (
b111 )
b100 *
b100 +
1,
#25000000
0!
0'
#30000000
1!
1"
0#
0%
1&
1'
b001 (
b100 )
b11 *
0,
#35000000
0!
0'
#40000000
1!
1#
1%
1'
b100 *
#45000000
0!
0"
0#
0%
0&
0'
#50000000
1!
1'
b111 (
b111 )
1,
#55000000
0!
0'
#60000000
1!
1'
b11 *
#65000000
0!
0'
#70000000
1!
1#
1%
1'
b10 *
#75000000
0!
0'
#80000000
1!
1'
b1 *
b10 +
0,
#85000000
0!
0'
#90000000
1!
0#
0%
1'
b010 (
b010 )
b10 *
1,
#95000000
0!
0'
#100000000
1!
1'
b1 *
b1000 +
0,
#105000000
0!
0'
#110000000
1!
1'
b100 (
b001 )
b1000 *
1,
#115000000
0!
0'
#120000000
1!
1'
b111 *
#125000000
0!
0'
#130000000
1!
1'
b110 *
#135000000
0!
0'
#140000000
1!
1'
b101 *
#145000000
0!
0'
#150000000
1!
1'
b100 *
#155000000
0!
0'
#160000000
1!
1'
b11 *
#165000000
0!
0'
#170000000
1!
1'
b10 *
#175000000
0!
0'
#180000000
1!
1'
b1 *
b10 +
0,
#185000000
0!
0'
#190000000
1!
1'
b010 (
b010 )
b10 *
1,
#195000000
0!
0'
#200000000
1!
1'
b1 *
b11000 +
0,
#205000000
0!
0'
#210000000
1!
1'
b001 (
b100 )
b11000 *
1,
#215000000
0!
0'
#220000000
1!
1'
b10111 *
#225000000
0!
0'
#230000000
1!
1'
b10110 *
#235000000
0!
0'
#240000000
1!
1'
b10101 *
#245000000
0!
0'
#250000000
1!
1'
b10100 *
#255000000
0!
0'
#260000000
1!
1'
b10011 *
#265000000
0!
0'
#270000000
1!
1'
b10010 *
#275000000
0!
0'
#280000000
1!
1'
b10001 *
#285000000
0!
0'
#290000000
1!
1'
b10000 *
#295000000
0!
0'
#300000000
1!
1'
b1111 *
#305000000
0!
0'
#310000000
1!
1'
b1110 *
#315000000
0!
0'
#320000000
1!
1'
b1101 *
#325000000
0!
0'
#330000000
1!
1'
b1100 *
#335000000
0!
0'
#340000000
1!
1'
b1011 *
#345000000
0!
0'
#350000000
1!
1'
b1010 *
#355000000
0!
0'
#360000000
1!
1'
b1001 *
#365000000
0!
0'
#370000000
1!
1'
b1000 *
#375000000
0!
0'
#380000000
1!
1'
b111 *
#385000000
0!
0'
#390000000
1!
1'
b110 *
#395000000
0!
0'
#400000000
1!
1'
b101 *
#405000000
0!
0'
#410000000
1!
1'
b100 *
#415000000
0!
0'
#420000000
1!
1'
b11 *
#425000000
0!
0'
#430000000
1!
1'
b10 *
#435000000
0!
0'
#440000000
1!
1'
b1 *
b10 +
0,
#445000000
0!
0'
#450000000
1!
1'
b10 *
